{
  "format": {
    "version": {
      "major": 2,
      "minor": 0
    }
  },
  "tests": [
    {
      "args": {
        "filename": "t1.ini"
      },
      "keys": [
        "key1"
      ],
      "xform": "",
      "backend": "ini",
      "output": {
        "exact": "value1"
      },
      "stdin": null
    },
    {
      "args": {
        "filename": "t1.ini"
      },
      "keys": [
        "key4"
      ],
      "xform": "",
      "backend": "ini",
      "output": {
        "exact": ""
      },
      "stdin": null
    },
    {
      "args": {
        "filename": "t1.ini"
      },
      "keys": [
        "key6"
      ],
      "xform": "",
      "backend": "ini",
      "output": {
        "exact": "value6"
      },
      "stdin": null
    },
    {
      "args": {
        "filename": "t2.ini"
      },
      "keys": [
        "key1"
      ],
      "xform": "",
      "backend": "ini",
      "output": {
        "exact": "1"
      },
      "stdin": null
    },
    {
      "args": {
        "filename": "t2.ini"
      },
      "keys": [
        "key1",
        "key2"
      ],
      "xform": "newline-to-space",
      "backend": "ini",
      "output": {
        "exact": "key1=1 key2=2 "
      },
      "stdin": null
    }
  ]
}
